wineclassify • wineclassify
…
The function data_load() can help the user download the
csv data set from the website and turn it into a data frame.

library(wineclassify)
## basic example code
d <- data_load("https://raw.githubusercontent.com/kashish1928/white_wine_dataset/main/winequality-white.csv", ";")
#> Rows: 4898 Columns: 12
#> ── Column specification ────────────────────────────────────────────────────────
#> Delimiter: ";"
#> dbl (12): fixed acidity, volatile acidity, citric acid, residual sugar, chlo...
#> 
#> ℹ Use `spec()` to retrieve the full column specification for this data.
#> ℹ Specify the column types or set `show_col_types = FALSE` to quiet this message.
d
#> # A tibble: 4,898 × 12
#>    `fixed acidity` `volatile acidity` `citric acid` `residual sugar` chlorides
#>              <dbl>              <dbl>         <dbl>            <dbl>     <dbl>
#>  1             7                 0.27          0.36             20.7     0.045
#>  2             6.3               0.3           0.34              1.6     0.049
#>  3             8.1               0.28          0.4               6.9     0.05 
#>  4             7.2               0.23          0.32              8.5     0.058
#>  5             7.2               0.23          0.32              8.5     0.058
#>  6             8.1               0.28          0.4               6.9     0.05 
#>  7             6.2               0.32          0.16              7       0.045
#>  8             7                 0.27          0.36             20.7     0.045
#>  9             6.3               0.3           0.34              1.6     0.049
#> 10             8.1               0.22          0.43              1.5     0.044
#> # ℹ 4,888 more rows
#> # ℹ 7 more variables: `free sulfur dioxide` <dbl>,
#> #   `total sulfur dioxide` <dbl>, density <dbl>, pH <dbl>, sulphates <dbl>,
#> #   alcohol <dbl>, quality <dbl>
…
